Personal Activity Monitoring
…
## v ggplot2 3.3.0     v purrr   0.3.4
## v tibble  3.0.1     v dplyr   0.8.5
## v tidyr   1.0.2     v stringr 1.4.0
## v readr   1.3.1     v forcats 0.5.0

## -- Conflicts -------------------------- tidyverse_conflicts() --
## x dplyr::filter() masks stats::filter()
## x dplyr::lag()    masks stats::lag()

View the data

tibble(activity)

## # A tibble: 17,568 x 3
##    steps date       interval
##    <int> <chr>         <int>
##  1    NA 2012-10-01        0
##  2    NA 2012-10-01        5
##  3    NA 2012-10-01       10
##  4    NA 2012-10-01       15
##  5    NA 2012-10-01       20
##  6    NA 2012-10-01       25
##  7    NA 2012-10-01       30
##  8    NA 2012-10-01       35
##  9    NA 2012-10-01       40
## 10    NA 2012-10-01       45
## # ... with 17,558 more rows
…
New dataset that is equal to the original dataset but with the missing data filled in.

CompleteActivity <- activity %>% 
        group_by(interval) %>% 
        mutate(Rounded.Avg.Steps.forNA = round(mean(steps, na.rm = T))) %>% 
        ungroup() %>% 
        mutate(steps = ifelse(is.na(steps), Rounded.Avg.Steps.forNA, steps)) %>% 
        select(-(Rounded.Avg.Steps.forNA))

New complete dataset

tibble(CompleteActivity)

## # A tibble: 17,568 x 3
##    steps date       interval
##    <dbl> <date>        <int>
##  1     2 2012-10-01        0
##  2     0 2012-10-01        5
##  3     0 2012-10-01       10
##  4     0 2012-10-01       15
##  5     0 2012-10-01       20
##  6     2 2012-10-01       25
##  7     1 2012-10-01       30
##  8     1 2012-10-01       35
##  9     0 2012-10-01       40
## 10     1 2012-10-01       45
## # ... with 17,558 more rows
…
5.1 Group (factor) the data by Weekdays and Weekends using weekdays() function

Week.days.ends <- CompleteActivity %>% 
        group_by(date) %>% 
        mutate(DayType = ifelse(weekdays(date) == c("Sunday", "Saturday"), "Weekend", "Weekday")) %>% 
        ungroup() %>% 
        group_by(interval, DayType) %>% 
        summarise(AverageSTEPS = mean(steps))

New factored dataset (weekday & weekend)

tibble(Week.days.ends)

## # A tibble: 576 x 3
##    interval DayType AverageSTEPS
##       <int> <chr>          <dbl>
##  1        0 Weekday       1.98  
##  2        0 Weekend       0.25  
##  3        5 Weekday       0.340 
##  4        5 Weekend       0     
##  5       10 Weekday       0.132 
##  6       10 Weekend       0     
##  7       15 Weekday       0.151 
##  8       15 Weekend       0     
##  9       20 Weekday       0.0755
## 10       20 Weekend       0     
## # ... with 566 more rows
…
